module bitbucket.org/projectiu7/backend/src/master

go 1.15

require (
	github.com/gin-contrib/cors v1.3.1
	github.com/gin-gonic/gin v1.6.3
	github.com/go-lintpack/lintpack v0.5.2 // indirect
	github.com/go-playground/validator/v10 v10.4.1 // indirect
	github.com/go-redis/redis/v8 v8.7.1
	github.com/golang/mock v1.5.0
	github.com/golang/protobuf v1.5.2
	github.com/golangci/errcheck v0.0.0-20181223084120-ef45e06d44b6 // indirect
	github.com/golangci/go-tools v0.0.0-20190318055746-e32c54105b7c // indirect
	github.com/golangci/goconst v0.0.0-20180610141641-041c5f2b40f3 // indirect
	github.com/golangci/gocyclo v0.0.0-20180528134321-2becd97e67ee // indirect
	github.com/golangci/golangci-lint v1.40.1 // indirect
	github.com/golangci/gosec v0.0.0-20190211064107-66fb7fc33547 // indirect
	github.com/golangci/ineffassign v0.0.0-20190609212857-42439a7714cc // indirect
	github.com/golangci/prealloc v0.0.0-20180630174525-215b22d4de21 // indirect
	github.com/google/uuid v1.2.0
	github.com/jackc/pgconn v1.8.1
	github.com/jackc/pgx/v4 v4.11.0
	github.com/joho/godotenv v1.3.0
	github.com/json-iterator/go v1.1.10 // indirect
	github.com/klauspost/cpuid v1.2.0 // indirect
	github.com/leodido/go-urn v1.2.1 // indirect
	github.com/lib/pq v1.9.0
	github.com/pashagolub/pgxmock v0.0.0-20210329125448-d2e8b19a1746
	github.com/prometheus/client_golang v1.7.1
	github.com/satori/go.uuid v1.2.0
	github.com/shirou/gopsutil v0.0.0-20180427012116-c95755e4bcd7 // indirect
	github.com/shirou/w32 v0.0.0-20160930032740-bb4de0191aa4 // indirect
	github.com/sirupsen/logrus v1.8.1
	github.com/stretchr/testify v1.7.0
	github.com/ugorji/go v1.2.4 // indirect
	golang.org/x/crypto v0.0.0-20210322153248-0c34fe9e7dc2
	golang.org/x/lint v0.0.0-20210508222113-6edffad5e616 // indirect
	golang.org/x/net v0.0.0-20210503060351-7fd8e65b6420 // indirect
	golang.org/x/sys v0.0.0-20210525143221-35b2ab0089ea // indirect
	golang.org/x/tools v0.1.2 // indirect
	google.golang.org/genproto v0.0.0-20210503173045-b96a97608f20 // indirect
	google.golang.org/grpc v1.37.0
	google.golang.org/grpc/cmd/protoc-gen-go-grpc v1.1.0 // indirect
	google.golang.org/protobuf v1.26.0
	gopkg.in/airbrake/gobrake.v2 v2.0.9 // indirect
	gopkg.in/gemnasium/logrus-airbrake-hook.v2 v2.1.2 // indirect
	gopkg.in/yaml.v2 v2.4.0 // indirect
	sourcegraph.com/sqs/pbtypes v0.0.0-20180604144634-d3ebe8f20ae4 // indirect
)
